{
	"sites": {
		"site3": {
			"name": "site3",
			"type": "CloudFoundry",
			"api": "api.cw-vdr-labs3.elpaaso.net",
			"user": "itao",
			"pwd": "TMPpwd",
			"org": "lizard",
			"space": "prod",
			"skipSslValidation": true
		},
		"site1": {
			"name": "site1",
			"type": "CloudFoundry",
			"api": "api.cw-vdr-labs1.elpaaso.net",
			"user": "itao",
			"pwd": "TMPpwd",
			"org": "lizard",
			"space": "prod",
			"skipSslValidation": true
		},
		"site2": {
			"name": "site2",
			"type": "CloudFoundry",
			"api": "api.cw-vdr-labs2.elpaaso.net",
			"user": "itao",
			"pwd": "TMPpwd",
			"org": "lizard",
			"space": "prod",
			"skipSslValidation": true
		}
	},
	"overviewSites": {
		"site3": {
			"overviewApps": [{
					"name": "eligibility",
					"path": "lizard-eligibility-service_1.0.0.jar",
					"state": "RUNNING",
					"nbProcesses": 3,
					"env": {
						"SPRING_CLOUD_CONFIG_SERVER_GIT_URI": "https://gitlab.com/x_tao/lizard-config.git",
						"SPRING_CLOUD_CONFIG_LABEL": "master",
						"SPRING_PROFILES_ACTIVE": "cloud",
						"EUREKA_INSTANCE_METADATA_MAP_ZONE": "cloud-foundry-3"
					},
					"routes": ["lizard-eligibility.cw-vdr-labs3.elpaaso.net"],
					"services": ["lizard-eureka-service", "lizard-zipkin-service"]
				}, {
					"name": "catalog",
					"path": "lizard-catalog-service_1.0.0.jar",
					"state": "RUNNING",
					"nbProcesses": 3,
					"env": {
						"EUREKA_INSTANCE_METADATA_MAP_ZONE": "cloud-foundry-3"
					},
					"routes": ["lizard-catalog.cw-vdr-labs3.elpaaso.net"],
					"services": ["lizard-eureka-service", "lizard-zipkin-service"]
				}
			]
		},
		"site1": {
			"overviewApps": [{
					"name": "catalog",
					"path": "lizard-catalog-service_1.0.0.jar",
					"state": "RUNNING",
					"nbProcesses": 3,
					"env": {
						"EUREKA_INSTANCE_METADATA_MAP_ZONE": "cloud-foundry-1"
					},
					"routes": ["lizard-catalog.cw-vdr-labs1.elpaaso.net"],
					"services": ["lizard-eureka-service", "lizard-zipkin-service"]
				}, {
					"name": "eligibility",
					"path": "lizard-eligibility-service_1.0.0.jar",
					"state": "RUNNING",
					"nbProcesses": 3,
					"env": {
						"SPRING_CLOUD_CONFIG_SERVER_GIT_URI": "https://gitlab.com/x_tao/lizard-config.git",
						"SPRING_CLOUD_CONFIG_LABEL": "master",
						"SPRING_PROFILES_ACTIVE": "cloud",
						"EUREKA_INSTANCE_METADATA_MAP_ZONE": "cloud-foundry-1"
					},
					"routes": ["lizard-eligibility.cw-vdr-labs1.elpaaso.net"],
					"services": ["lizard-eureka-service", "lizard-zipkin-service"]
				}
			]
		},
		"site2": {
			"overviewApps": [{
					"name": "catalog",
					"path": "lizard-catalog-service_1.0.0.jar",
					"state": "RUNNING",
					"nbProcesses": 3,
					"env": {
						"EUREKA_INSTANCE_METADATA_MAP_ZONE": "cloud-foundry-2"
					},
					"routes": ["lizard-catalog.cw-vdr-labs2.elpaaso.net"],
					"services": ["lizard-eureka-service", "lizard-zipkin-service"]
				}, {
					"name": "eligibility",
					"path": "lizard-eligibility-service_1.0.0.jar",
					"state": "RUNNING",
					"nbProcesses": 3,
					"env": {
						"SPRING_CLOUD_CONFIG_SERVER_GIT_URI": "https://gitlab.com/x_tao/lizard-config.git",
						"SPRING_CLOUD_CONFIG_LABEL": "master",
						"SPRING_PROFILES_ACTIVE": "cloud",
						"EUREKA_INSTANCE_METADATA_MAP_ZONE": "cloud-foundry-2"
					},
					"routes": ["lizard-eligibility.cw-vdr-labs2.elpaaso.net"],
					"services": ["lizard-eureka-service", "lizard-zipkin-service"]
				}
			]
		}
	}
}