{
	"sites": {
		"site3": {
			"name": "site3",
			"type": "CloudFoundry",
			"api": "api.cw-vdr-labs3.elpaaso.net",
			"user": "USERNAME",
			"pwd": "PASSWORD",
			"org": "demo",
			"space": "prod",
			"skipSslValidation": true
		},
		"site1": {
			"name": "site1",
			"type": "CloudFoundry",
			"api": "api.cw-vdr-labs1.elpaaso.net",
			"user": "USERNAME",
			"pwd": "PASSWORD",
			"org": "demo",
			"space": "prod",
			"skipSslValidation": true
		},
		"site2": {
			"name": "site2",
			"type": "CloudFoundry",
			"api": "api.cw-vdr-labs2.elpaaso.net",
			"user": "USERNAME",
			"pwd": "PASSWORD",
			"org": "demo",
			"space": "prod",
			"skipSslValidation": true
		}
	},
	"architectureSites": {
		"site3": {
			"architectureMicroservices": []
		},
		"site1": {
			"architectureMicroservices": []
		},
		"site2": {
			"architectureMicroservices": []
		}
	}
}
