{
	"sites": {
		"site3": {
			"name": "site3",
			"type": "CloudFoundry",
			"api": "api.cw-vdr-labs3.elpaaso.net",
			"user": "USERNAME",
			"pwd": "PASSWORD",
			"org": "demo",
			"space": "prod",
			"skipSslValidation": true
		},
		"site1": {
			"name": "site1",
			"type": "CloudFoundry",
			"api": "api.cw-vdr-labs1.elpaaso.net",
			"user": "USERNAME",
			"pwd": "PASSWORD",
			"org": "demo",
			"space": "prod",
			"skipSslValidation": true
		},
		"site2": {
			"name": "site2",
			"type": "CloudFoundry",
			"api": "api.cw-vdr-labs2.elpaaso.net",
			"user": "USERNAME",
			"pwd": "PASSWORD",
			"org": "demo",
			"space": "prod",
			"skipSslValidation": true
		}
	},
	"architectureSites": {
		"site1": {
			"architectureMicroservices": [{
					"name": "hello",
					"path": "static-app_v1.0.0.zip",
					"state": "RUNNING",
					"nbProcesses": 2,
					"memory": "1024M",
					"disk": "1024M",
					"env": {
						"foo": "bar1"
					},
					"routes": ["hello.cw-vdr-labs1.elpaaso.net"]
				}
			]
		},
		"site2": {
			"architectureMicroservices": [{
					"name": "hello",
					"path": "static-app_v1.0.0.zip",
					"state": "RUNNING",
					"nbProcesses": 2,
					"memory": "1024M",
					"disk": "1024M",
					"env": {
						"foo": "bar2"
					},
					"routes": ["hello.cw-vdr-labs2.elpaaso.net"]
				}
			]
		},
		"site3": {
			"architectureMicroservices": [{
					"name": "hello",
					"path": "static-app_v1.0.0.zip",
					"state": "RUNNING",
					"nbProcesses": 2,
					"memory": "1024M",
					"disk": "1024M",
					"env": {
						"foo": "bar3"
					},
					"routes": ["hello.cw-vdr-labs3.elpaaso.net"]
				}
			]
		}
	}
}