Af,starttime,endtime,success
final2.json,1502345721440,1502346386901,0
final1.json,1502346446953,1502347154795,0
final2.json,1502347214818,1502347805499,0
final1.json,1502347865540,1502348516765,0
final2.json,1502348576834,1502349275360,0
final1.json,1502349335400,1502349995749,0
final2.json,1502350055792,1502350757880,0
final1.json,1502350817941,1502351463002,0
final2.json,1502351523186,1502352180988,0
final1.json,1502352241035,1502352953163,0
final2.json,1502353013247,1502353612014,0
final1.json,1502353672049,1502354339807,0
final2.json,1502354399870,1502355048474,0
final1.json,1502355108515,1502355832417,0
final2.json,1502355892454,1502356542807,0
final1.json,1502356602848,1502357313174,0
final2.json,1502357373213,1502358079686,0
final1.json,1502358139716,1502358783103,0
final2.json,1502358843140,1502359545848,0
final1.json,1502359605882,1502360254257,0
final2.json,1502360314350,1502360965332,0
final1.json,1502361025370,1502361610228,0
final2.json,1502361670284,1502362371979,0
final1.json,1502362432012,1502363080753,0
final2.json,1502363140783,1502363843510,0
final1.json,1502363903540,1502364546702,0
final2.json,1502364606737,1502365310358,0
final1.json,1502365370399,1502366017224,0
final2.json,1502366077258,1502366788233,0
final1.json,1502366848262,1502367451221,0